{"help": "https://data.gov.il/api/3/action/help_show?name=datastore_search", "success": true, "result": {"include_total": true, "limit": 5, "q": "\u05d0\u05d9\u05e0\u05e4\u05d9\u05e0\u05d9\u05d8\u05d9 \u05d4\u05e9\u05ea\u05dc\u05de\u05d5\u05ea \u05de\u05e0\u05d9\u05d5\u05ea \u05d1\u05d9\u05e9\u05e8\u05d0\u05dc", "records_format": "objects", "resource_id": "91c849ed-ddc4-472b-bd09-0f5486cea35c", "total_estimation_threshold": null, "records": [{"_id":129829,"FUND_ID":1085,"FUND_NAME":"אינפיניטי השתלמות מניות בישראל","FUND_CLASSIFICATION":"קרנות השתלמות","CONTROLLING_CORPORATION":"אינפיניטי ניהול תיקי השקעות (בישראל ובעולם) בע\"מ","MANAGING_CORPORATION":"אינפיניטי השתלמות, גמל ופנסיה בע\"מ","REPORT_PERIOD":202004,"INCEPTION_DATE":38342,"TARGET_POPULATION":"כלל האוכלוסיה","SPECIALIZATION":"מניות","SUB_SPECIALIZATION":"מניות ישראל","DEPOSITS":0.67,"WITHDRAWLS":0.06,"INTERNAL_TRANSFERS":0.84,"NET_MONTHLY_DEPOSITS":1.45,"TOTAL_ASSETS":49.22,"AVG_ANNUAL_MANAGEMENT_FEE":0.78,"AVG_DEPOSIT_FEE":null,"MONTHLY_YIELD":12.98,"YEAR_TO_DATE_YIELD":-11.36,"YIELD_TRAILING_3_YRS":10.97,"YIELD_TRAILING_5_YRS":-1.81,"AVG_ANNUAL_YIELD_TRAILING_3YRS":3.53,"AVG_ANNUAL_YIELD_TRAILING_5YRS":-0.36,"STANDARD_DEVIATION":14.73,"ALPHA":"-1.2","SHARPE_RATIO":"0.1","LIQUID_ASSETS_PERCENT":96.5,"STOCK_MARKET_EXPOSURE":"48.03","FOREIGN_EXPOSURE":"1.3","FOREIGN_CURRENCY_EXPOSURE":"0.01","MANAGING_CORPORATION_LEGAL_ID":513621110,"REPORTING_YEAR":2020,"rank":0.47627738},{"_id":95313,"FUND_ID":1085,"FUND_NAME":"אינפיניטי השתלמות מניות בישראל","FUND_CLASSIFICATION":"קרנות השתלמות","CONTROLLING_CORPORATION":"אינפיניטי ניהול תיקי השקעות (בישראל ובעולם) בע\"מ","MANAGING_CORPORATION":"אינפיניטי השתלמות, גמל ופנסיה בע\"מ","REPORT_PERIOD":201612,"INCEPTION_DATE":38342,"TARGET_POPULATION":"כלל האוכלוסיה","SPECIALIZATION":"מניות","SUB_SPECIALIZATION":"מניות ישראל","DEPOSITS":1.92,"WITHDRAWLS":0.93,"INTERNAL_TRANSFERS":-1.32,"NET_MONTHLY_DEPOSITS":-0.33,"TOTAL_ASSETS":86.38,"AVG_ANNUAL_MANAGEMENT_FEE":0.89,"AVG_DEPOSIT_FEE":null,"MONTHLY_YIELD":1.27,"YEAR_TO_DATE_YIELD":-2.5,"YIELD_TRAILING_3_YRS":6.19,"YIELD_TRAILING_5_YRS":30.46,"AVG_ANNUAL_YIELD_TRAILING_3YRS":2.02,"AVG_ANNUAL_YIELD_TRAILING_5YRS":5.46,"STANDARD_DEVIATION":11.02,"ALPHA":"-0.96","SHARPE_RATIO":"0.33","LIQUID_ASSETS_PERCENT":94.7,"STOCK_MARKET_EXPOSURE":"85.5","FOREIGN_EXPOSURE":"0","FOREIGN_CURRENCY_EXPOSURE":"0.11","MANAGING_CORPORATION_LEGAL_ID":513621110,"REPORTING_YEAR":2016,"rank":0.47627738},{"_id":95296,"FUND_ID":1085,"FUND_NAME":"אינפיניטי השתלמות מניות בישראל","FUND_CLASSIFICATION":"קרנות השתלמות","CONTROLLING_CORPORATION":"אינפיניטי ניהול תיקי השקעות (בישראל ובעולם) בע\"מ","MANAGING_CORPORATION":"אינפיניטי השתלמות, גמל ופנסיה בע\"מ","REPORT_PERIOD":201507,"INCEPTION_DATE":38342,"TARGET_POPULATION":"כלל האוכלוסיה","SPECIALIZATION":"מניות","SUB_SPECIALIZATION":"מניות ישראל","DEPOSITS":0.65,"WITHDRAWLS":0.38,"INTERNAL_TRANSFERS":-0.8,"NET_MONTHLY_DEPOSITS":-0.53,"TOTAL_ASSETS":105.63,"AVG_ANNUAL_MANAGEMENT_FEE":0.96,"AVG_DEPOSIT_FEE":null,"MONTHLY_YIELD":4.04,"YEAR_TO_DATE_YIELD":14.46,"YIELD_TRAILING_3_YRS":47.69,"YIELD_TRAILING_5_YRS":39.41,"AVG_ANNUAL_YIELD_TRAILING_3YRS":13.88,"AVG_ANNUAL_YIELD_TRAILING_5YRS":6.87,"STANDARD_DEVIATION":12.16,"ALPHA":"-1.56","SHARPE_RATIO":"0.7","LIQUID_ASSETS_PERCENT":95.3,"STOCK_MARKET_EXPOSURE":"105.29","FOREIGN_EXPOSURE":"0","FOREIGN_CURRENCY_EXPOSURE":"0","MANAGING_CORPORATION_LEGAL_ID":513621110,"REPORTING_YEAR":2015,"rank":0.47627738},{"_id":129819,"FUND_ID":1085,"FUND_NAME":"אינפיניטי השתלמות מניות בישראל","FUND_CLASSIFICATION":"קרנות השתלמות","CONTROLLING_CORPORATION":"אינפיניטי ניהול תיקי השקעות (בישראל ובעולם) בע\"מ","MANAGING_CORPORATION":"אינפיניטי השתלמות, גמל ופנסיה בע\"מ","REPORT_PERIOD":201906,"INCEPTION_DATE":38342,"TARGET_POPULATION":"כלל האוכלוסיה","SPECIALIZATION":"מניות","SUB_SPECIALIZATION":"מניות ישראל","DEPOSITS":0.32,"WITHDRAWLS":0.48,"INTERNAL_TRANSFERS":-0.73,"NET_MONTHLY_DEPOSITS":-0.89,"TOTAL_ASSETS":54.04,"AVG_ANNUAL_MANAGEMENT_FEE":0.8,"AVG_DEPOSIT_FEE":null,"MONTHLY_YIELD":3.58,"YEAR_TO_DATE_YIELD":11.39,"YIELD_TRAILING_3_YRS":18.91,"YIELD_TRAILING_5_YRS":15.31,"AVG_ANNUAL_YIELD_TRAILING_3YRS":5.94,"AVG_ANNUAL_YIELD_TRAILING_5YRS":2.89,"STANDARD_DEVIATION":10.92,"ALPHA":"-0.84","SHARPE_RATIO":"0.35","LIQUID_ASSETS_PERCENT":95.3,"STOCK_MARKET_EXPOSURE":"54.01","FOREIGN_EXPOSURE":"2.76","FOREIGN_CURRENCY_EXPOSURE":"0.02","MANAGING_CORPORATION_LEGAL_ID":513621110,"REPORTING_YEAR":2019,"rank":0.47627738},{"_id":129835,"FUND_ID":1085,"FUND_NAME":"אינפיניטי השתלמות מניות בישראל","FUND_CLASSIFICATION":"קרנות השתלמות","CONTROLLING_CORPORATION":"אינפיניטי ניהול תיקי השקעות (בישראל ובעולם) בע\"מ","MANAGING_CORPORATION":"אינפיניטי השתלמות, גמל ופנסיה בע\"מ","REPORT_PERIOD":202010,"INCEPTION_DATE":38342,"TARGET_POPULATION":"כלל האוכלוסיה","SPECIALIZATION":"מניות","SUB_SPECIALIZATION":"מניות ישראל","DEPOSITS":0.31,"WITHDRAWLS":0.16,"INTERNAL_TRANSFERS":-0.72,"NET_MONTHLY_DEPOSITS":-0.57,"TOTAL_ASSETS":45.48,"AVG_ANNUAL_MANAGEMENT_FEE":0.78,"AVG_DEPOSIT_FEE":null,"MONTHLY_YIELD":2.52,"YEAR_TO_DATE_YIELD":-11.61,"YIELD_TRAILING_3_YRS":9.12,"YIELD_TRAILING_5_YRS":2.57,"AVG_ANNUAL_YIELD_TRAILING_3YRS":2.95,"AVG_ANNUAL_YIELD_TRAILING_5YRS":0.51,"STANDARD_DEVIATION":14.65,"ALPHA":"-1.08","SHARPE_RATIO":"0.12","LIQUID_ASSETS_PERCENT":96.2,"STOCK_MARKET_EXPOSURE":"45.42","FOREIGN_EXPOSURE":"1.01","FOREIGN_CURRENCY_EXPOSURE":"0.02","MANAGING_CORPORATION_LEGAL_ID":513621110,"REPORTING_YEAR":2020,"rank":0.47627738}], "fields": [{"id": "_id", "type": "int"}, {"id": "FUND_ID", "type": "numeric", "info": {"label": "\u05de\u05e1' \u05d4\u05e7\u05d5\u05e4\u05d4", "notes": "\u05de\u05e1\u05e4\u05e8 \u05de\u05e1 \u05d4\u05db\u05e0\u05e1\u05d4 \u05e9\u05dc \u05e7\u05d5\u05e4\u05ea \u05d4\u05d2\u05de\u05dc. \u05d6\u05d9\u05d4\u05d5\u05d9 \u05d9\u05d7\u05d5\u05d3\u05d9 \u05dc\u05e7\u05d5\u05e4\u05d4.\r\n", "type_override": ""}}, {"id": "FUND_NAME", "type": "text", "info": {"label": "\u05e9\u05dd \u05e7\u05d5\u05e4\u05d4", "notes": "\u05e9\u05dd \u05e7\u05d5\u05e4\u05d4 -  \u05de\u05dc\u05dc\r\n", "type_override": ""}}, {"id": "FUND_CLASSIFICATION", "type": "text", "info": {"label": "\u05e1\u05d5\u05d2 \u05e7\u05d5\u05e4\u05d4", "notes": "\u05e1\u05d5\u05d2 \u05e7\u05d5\u05e4\u05ea \u05d2\u05de\u05dc: \u05ea\u05d2\u05de\u05d5\u05dc\u05d9\u05dd \u05d5\u05d0\u05d9\u05e9\u05d9\u05ea \u05dc\u05e4\u05d9\u05e6\u05d5\u05d9\u05d9\u05dd, \u05e7\u05e8\u05e0\u05d5\u05ea \u05d4\u05e9\u05ea\u05dc\u05de\u05d5\u05ea, \u05de\u05e8\u05db\u05d6\u05d9\u05ea \u05dc\u05e4\u05d9\u05e6\u05d5\u05d9\u05d9\u05dd, \u05de\u05d8\u05e8\u05d4 \u05d0\u05d7\u05e8\u05ea, \u05e7\u05d5\u05e4\u05ea \u05d2\u05de\u05dc \u05dc\u05d4\u05e9\u05e7\u05e2\u05d4, \u05e7\u05d5\u05e4\u05ea \u05d2\u05de\u05dc \u05dc\u05d4\u05e9\u05e7\u05e2\u05d4 \u05d7\u05d9\u05e1\u05db\u05d5\u05df \u05dc\u05db\u05dc \u05d9\u05dc\u05d3\r\n", "type_override": ""}}, {"id": "CONTROLLING_CORPORATION", "type": "text", "info": {"label": "\u05e9\u05dd \u05ea\u05d0\u05d2\u05d9\u05d3 \u05e9\u05d5\u05dc\u05d8", "notes": "\u05e9\u05dd \u05ea\u05d0\u05d2\u05d9\u05d3 \u05e9\u05d5\u05dc\u05d8\r\n", "type_override": ""}}, {"id": "MANAGING_CORPORATION", "type": "text", "info": {"label": "\u05e9\u05dd \u05d7\u05d1\u05e8\u05d4 \u05de\u05e0\u05d4\u05dc\u05ea", "notes": "\u05e9\u05dd \u05d7\u05d1\u05e8\u05d4 \u05de\u05e0\u05d4\u05dc\u05ea\r\n", "type_override": ""}}, {"id": "REPORT_PERIOD", "type": "numeric", "info": {"label": "\u05ea\u05e7\u05d5\u05e4\u05ea \u05d4\u05d3\u05d9\u05d5\u05d5\u05d7 yyyymm", "notes": "\u05ea\u05e7\u05d5\u05e4\u05ea \u05d4\u05d3\u05d9\u05d5\u05d5\u05d7 yyyymm", "type_override": ""}}, {"id": "INCEPTION_DATE", "type": "numeric", "info": {"label": "\u05ea\u05d0\u05e8\u05d9\u05da \u05d4\u05e7\u05de\u05d4", "notes": "\u05ea\u05d0\u05e8\u05d9\u05da \u05d4\u05e7\u05de\u05ea \u05d4\u05e7\u05d5\u05e4\u05d4/\u05de\u05e1\u05dc\u05d5\u05dc\r\n", "type_override": ""}}, {"id": "TARGET_POPULATION", "type": "text", "info": {"label": "\u05d0\u05d5\u05db\u05dc\u05d5\u05e1\u05d9\u05d9\u05ea \u05d9\u05e2\u05d3", "notes": "\u05d4\u05d0\u05dd \u05de\u05d9\u05d5\u05e2\u05d3\u05ea \u05dc\u05db\u05dc\u05dc \u05d4\u05d0\u05d5\u05db\u05dc\u05d5\u05e1\u05d9\u05d9\u05d4 \u05d0\u05d5 \u05dc\u05e2\u05d5\u05d1\u05d3\u05d9 \u05de\u05e4\u05e2\u05dc/\u05d2\u05d5\u05e3 \u05de\u05e1\u05d5\u05d9\u05d9\u05dd (\u05e2\u05e0\u05e4\u05d9\u05d5\u05ea)\r\n", "type_override": ""}}, {"id": "SPECIALIZATION", "type": "text", "info": {"label": "\u05e1\u05d5\u05d2 \u05d4\u05ea\u05de\u05d7\u05d5\u05ea \u05e8\u05d0\u05e9\u05d9\u05ea", "notes": "\u05db\u05dc\u05dc\u05d9, \u05de\u05e0\u05d9\u05d5\u05ea, \u05d0\u05d2\"\u05d7, \u05de\u05d8\"\u05d7, \u05e9\u05e7\u05dc\u05d9, \u05de\u05d3\u05d3, \u05d7\u05d5\"\u05dc, \u05d9\u05e9\u05e8\u05d0\u05dc, \u05d4\u05dc\u05db\u05ea\u05d9, \u05d7\u05db\"\u05de \u05d0\u05d7\u05e8,\u05d0\u05d7\u05e8\r\n", "type_override": ""}}, {"id": "SUB_SPECIALIZATION", "type": "text", "info": {"label": "\u05e1\u05d5\u05d2 \u05d4\u05ea\u05de\u05d7\u05d5\u05ea \u05de\u05e9\u05e0\u05d9\u05ea", "notes": "\u05db\u05dc\u05dc\u05d9: \u05dc\u05dc\u05d0 \u05de\u05e0\u05d9\u05d5\u05ea, \u05e2\u05d3 10% \u05de\u05e0\u05d9\u05d5\u05ea, \u05de\u05de\u05e9\u05dc\u05ea\u05d9, \u05e4\u05e1\u05d9\u05d1\u05d9, \u05db\u05dc\u05dc\u05d9. \u05de\u05e0\u05d9\u05d5\u05ea: \u05d9\u05e9\u05e8\u05d0\u05dc, \u05d7\u05d5\"\u05dc, \u05d4\u05d9\u05d9\u05d8\u05e7, \u05e4\u05e1\u05d9\u05d1\u05d9. \u05d0\u05d2\"\u05d7: \u05dc\u05dc\u05d0 \u05de\u05e0\u05d9\u05d5\u05ea, \u05e6\u05de\u05d5\u05d3 \u05de\u05d3\u05d3, \u05e7\u05d5\u05e0\u05e6\u05e8\u05e0\u05d9, \u05d8\u05d5\u05d5\u05d7 \u05e7\u05e6\u05e8, \u05dc\u05d0 \u05e6\u05de\u05d5\u05d3, \u05de\u05de\u05e9\u05dc\u05ea\u05d9, \u05e1\u05d5\u05dc\u05d9\u05d3\u05d9, \u05de\u05e9\u05d5\u05dc\u05d1 \u05de\u05e0\u05d9\u05d5\u05ea \u05d5\u05db\u05d5'. \u05d5\u05db\u05d5'.\r\n", "type_override": ""}}, {"id": "DEPOSITS", "type": "numeric", "info": {"label": "\u05d4\u05e4\u05e7\u05d3\u05d5\u05ea \u05dc\u05dc\u05d0 \u05d4\u05e2\u05d1\u05e8\u05d5\u05ea", "notes": "\u05d4\u05e4\u05e7\u05d3\u05d5\u05ea \u05e9\u05dc \u05e2\u05de\u05d9\u05ea\u05dd \u05e9\u05db\u05d9\u05e8\u05d9\u05dd \u05d5\u05e2\u05e6\u05de\u05d0\u05d9\u05dd \u05dc\u05e7\u05d5\u05e4\u05d4\r\n", "type_override": ""}}, {"id": "WITHDRAWLS", "type": "numeric", "info": {"label": "\u05de\u05e9\u05d9\u05db\u05d5\u05ea \u05dc\u05dc\u05d0 \u05d4\u05e2\u05d1\u05e8\u05d5\u05ea", "notes": "\u05ea\u05e9\u05dc\u05d5\u05de\u05d9\u05dd \u05dc\u05e2\u05de\u05d9\u05ea\u05d9\u05dd \u05e9\u05db\u05d9\u05e8\u05d9\u05dd \u05d5\u05e2\u05e6\u05de\u05d0\u05d9\u05d9\u05dd\r\n", "type_override": ""}}, {"id": "INTERNAL_TRANSFERS", "type": "numeric", "info": {"label": "\u05d4\u05e2\u05d1\u05e8\u05d5\u05ea \u05d1\u05d9\u05df \u05d4\u05e7\u05d5\u05e4\u05d5\u05ea", "notes": "\u05d4\u05e2\u05d1\u05e8\u05d5\u05ea \u05e0\u05d8\u05d5 \u05d1\u05d9\u05df \u05d4\u05e7\u05d5\u05e4\u05d5\u05ea. \u05d4\u05e2\u05d1\u05e8\u05d5\u05ea \u05de\u05e7\u05d5\u05e4\u05d5\u05ea \u05d2\u05de\u05dc \u05d0\u05d7\u05e8\u05d5\u05ea \u05e4\u05d7\u05d5\u05ea \u05d4\u05e2\u05d1\u05e8\u05d5\u05ea \u05dc\u05e7\u05d5\u05e4\u05d5\u05ea \u05d0\u05d7\u05e8\u05d5\u05ea\r\n", "type_override": ""}}, {"id": "NET_MONTHLY_DEPOSITS", "type": "numeric", "info": {"label": "\u05e6\u05d1\u05d9\u05e8\u05d4 \u05e0\u05d8\u05d5", "notes": "\u05d4\u05e4\u05e7\u05d3\u05d5\u05ea - \u05de\u05e9\u05d9\u05db\u05d5\u05ea +/- \u05d4\u05e2\u05d1\u05e8\u05d5\u05ea\r\n", "type_override": ""}}, {"id": "TOTAL_ASSETS", "type": "numeric", "info": {"label": "\u05d9\u05ea\u05e8\u05ea \u05e0\u05db\u05e1\u05d9\u05dd \u05dc\u05e1\u05d5\u05e3 \u05ea\u05e7\u05d5\u05e4\u05d4", "notes": "\u05d9\u05ea\u05e8\u05ea \u05e0\u05db\u05e1\u05d9\u05dd \u05dc\u05e1\u05d5\u05e3 \u05ea\u05e7\u05d5\u05e4\u05d4 \u05e9\u05e0\u05d1\u05d7\u05e8\u05d4 \u05d1\u05e2\u05d3 \u05ea\u05e7\u05d5\u05e4\u05ea \u05d3\u05d9\u05d5\u05d5\u05d7\r\n", "type_override": ""}}, {"id": "AVG_ANNUAL_MANAGEMENT_FEE", "type": "numeric", "info": {"label": "\u05e9\u05d9\u05e2\u05d5\u05e8 \u05d3\u05de\u05d9 \u05e0\u05d9\u05d4\u05d5\u05dc \u05de\u05de\u05d5\u05e6\u05e2\u05ea \u05e9\u05e0\u05ea\u05d9 \u2013 \u05e0\u05db\u05e1\u05d9\u05dd", "notes": "\u05e9\u05d9\u05e2\u05d5\u05e8 \u05d3\u05de\u05d9 \u05e0\u05d9\u05d4\u05d5\u05dc \u05de\u05de\u05d5\u05e6\u05e2\u05ea \u05e9\u05e0\u05ea\u05d9 \u2013 \u05e0\u05db\u05e1\u05d9\u05dd\r\n", "type_override": ""}}, {"id": "AVG_DEPOSIT_FEE", "type": "text", "info": {"label": "\u05e9\u05d9\u05e2\u05d5\u05e8 \u05d3\u05de\u05d9 \u05e0\u05d9\u05d4\u05d5\u05dc \u05de\u05de\u05d5\u05e6\u05e2\u05ea \u05de\u05d4\u05e4\u05e7\u05d3\u05d5\u05ea", "notes": "\u05e9\u05d9\u05e2\u05d5\u05e8 \u05d3\u05de\u05d9 \u05e0\u05d9\u05d4\u05d5\u05dc \u05de\u05de\u05d5\u05e6\u05e2\u05ea \u05de\u05d4\u05e4\u05e7\u05d3\u05d5\u05ea\r\n", "type_override": ""}}, {"id": "MONTHLY_YIELD", "type": "numeric", "info": {"label": "\u05ea\u05e9\u05d5\u05d0\u05d4 \u05d7\u05d5\u05d3\u05e9\u05d9\u05ea", "notes": "\u05ea\u05e9\u05d5\u05d0\u05d4 \u05d7\u05d5\u05d3\u05e9\u05d9\u05ea\r\n", "type_override": ""}}, {"id": "YEAR_TO_DATE_YIELD", "type": "numeric", "info": {"label": "\u05ea\u05e9\u05d5\u05d0\u05d4 \u05de\u05e6\u05d8\u05d1\u05e8\u05ea \u05de\u05ea\u05d7\u05d9\u05dc\u05ea \u05d4\u05e9\u05e0\u05d4", "notes": "\u05ea\u05e9\u05d5\u05d0\u05d4 \u05de\u05e6\u05d8\u05d1\u05e8\u05ea \u05de\u05ea\u05d7\u05d9\u05dc\u05ea \u05d4\u05e9\u05e0\u05d4\r\n", "type_override": ""}}, {"id": "YIELD_TRAILING_3_YRS", "type": "numeric", "info": {"label": "\u05ea\u05e9\u05d5\u05d0\u05d4 \u05de\u05e6\u05d8\u05d1\u05e8\u05ea \u05dc-3 \u05e9\u05e0\u05d9\u05dd \u05e2\u05d5\u05e7\u05d1\u05d5\u05ea", "notes": "\u05ea\u05e9\u05d5\u05d0\u05d4 \u05de\u05e6\u05d8\u05d1\u05e8\u05ea \u05dc-3 \u05e9\u05e0\u05d9\u05dd \u05e2\u05d5\u05e7\u05d1\u05d5\u05ea", "type_override": ""}}, {"id": "YIELD_TRAILING_5_YRS", "type": "numeric", "info": {"label": "\u05ea\u05e9\u05d5\u05d0\u05d4 \u05de\u05e6\u05d8\u05d1\u05e8\u05ea \u05dc-5 \u05e9\u05e0\u05d9\u05dd \u05e2\u05d5\u05e7\u05d1\u05d5\u05ea", "notes": "\u05ea\u05e9\u05d5\u05d0\u05d4 \u05de\u05e6\u05d8\u05d1\u05e8\u05ea \u05dc-5 \u05e9\u05e0\u05d9\u05dd \u05e2\u05d5\u05e7\u05d1\u05d5\u05ea\r\n", "type_override": ""}}, {"id": "AVG_ANNUAL_YIELD_TRAILING_3YRS", "type": "numeric", "info": {"label": "\u05ea\u05e9\u05d5\u05d0\u05d4 \u05e9\u05e0\u05ea\u05d9\u05ea \u05de\u05de\u05d5\u05e6\u05e2\u05ea - 3 \u05e9\u05e0\u05d9\u05dd", "notes": "\u05ea\u05e9\u05d5\u05d0\u05d4 \u05e9\u05e0\u05ea\u05d9\u05ea \u05de\u05de\u05d5\u05e6\u05e2\u05ea - 3 \u05e9\u05e0\u05d9\u05dd \u05e2\u05d5\u05e7\u05d1\u05d5\u05ea", "type_override": ""}}, {"id": "AVG_ANNUAL_YIELD_TRAILING_5YRS", "type": "numeric", "info": {"label": "\u05ea\u05e9\u05d5\u05d0\u05d4 \u05e9\u05e0\u05ea\u05d9\u05ea \u05de\u05de\u05d5\u05e6\u05e2\u05ea - 5 \u05e9\u05e0\u05d9\u05dd", "notes": "\u05ea\u05e9\u05d5\u05d0\u05d4 \u05e9\u05e0\u05ea\u05d9\u05ea \u05de\u05de\u05d5\u05e6\u05e2\u05ea - 5 \u05e9\u05e0\u05d9\u05dd \u05e2\u05d5\u05e7\u05d1\u05d5\u05ea", "type_override": ""}}, {"id": "STANDARD_DEVIATION", "type": "numeric", "info": {"label": "\u05e1\u05d8\u05d9\u05ea \u05ea\u05e7\u05df \u2013 5 \u05e9\u05e0\u05d9\u05dd \u05e2\u05d5\u05e7\u05d1\u05d5\u05ea", "notes": "\u05e1\u05d8\u05d9\u05ea \u05ea\u05e7\u05df \u2013 5 \u05e9\u05e0\u05d9\u05dd \u05e2\u05d5\u05e7\u05d1\u05d5\u05ea\r\n", "type_override": ""}}, {"id": "ALPHA", "type": "text", "info": {"label": "\u05d0\u05dc\u05e4\u05d0 \u05e9\u05e0\u05ea\u05d9\u05ea", "notes": "\u05de\u05d3\u05d3 \u05e9\u05e0\u05ea\u05d9\u05ea \u05e9\u05dc \u05ea\u05e9\u05d5\u05d0\u05d5\u05ea \u05d4\u05e7\u05d5\u05e4\u05d4 \u05d1\u05d9\u05d7\u05e1 \u05dc\u05de\u05d3\u05d3 \u05e8\u05d9\u05d1\u05d9\u05ea \u05dc\u05dc\u05d0 \u05e1\u05d9\u05db\u05d5\u05df, \u05e2\u05dc \u05e1\u05de\u05da \u05d4\u05ea\u05e9\u05d5\u05d0\u05d4 \u05d4\u05d7\u05d5\u05d3\u05e9\u05d9\u05ea \u05e9\u05dc 60 \u05d4\u05d7\u05d5\u05d3\u05e9\u05d9\u05dd \u05d4\u05d0\u05d7\u05e8\u05d5\u05e0\u05d9\u05dd\r\n", "type_override": ""}}, {"id": "SHARPE_RATIO", "type": "text", "info": {"label": "\u05e9\u05d0\u05e8\u05e4 \u05e8\u05d9\u05d1\u05d9\u05ea \u05d7\u05e1\u05e8\u05ea \u05e1\u05d9\u05db\u05d5\u05df", "notes": "\u05de\u05d3\u05d3 \u05e9\u05e0\u05ea\u05d9\u05ea \u05e9\u05dc \u05ea\u05e9\u05d5\u05d0\u05d5\u05ea \u05d4\u05e7\u05d5\u05e4\u05d4 \u05d1\u05d9\u05d7\u05e1 \u05dc\u05de\u05d3\u05d3 \u05e8\u05d9\u05d1\u05d9\u05ea \u05dc\u05dc\u05d0 \u05e1\u05d9\u05db\u05d5\u05df, \u05e2\u05dc \u05e1\u05de\u05da \u05d4\u05ea\u05e9\u05d5\u05d0\u05d4 \u05d4\u05d7\u05d5\u05d3\u05e9\u05d9\u05ea \u05e9\u05dc 60 \u05d4\u05d7\u05d5\u05d3\u05e9\u05d9\u05dd \u05d4\u05d0\u05d7\u05e8\u05d5\u05e0\u05d9\u05dd\r\n", "type_override": ""}}, {"id": "LIQUID_ASSETS_PERCENT", "type": "numeric", "info": {"label": "\u05d9\u05d7\u05e1 \u05e0\u05d6\u05d9\u05dc\u05d5\u05ea", "notes": "\u05d0\u05d7\u05d5\u05d6 \u05d4\u05e0\u05d6\u05d9\u05dc\u05d5\u05ea \u05e9\u05dc \u05e0\u05db\u05e1\u05d9 \u05d4\u05e7\u05d5\u05e4\u05d4\r\n", "type_override": ""}}, {"id": "STOCK_MARKET_EXPOSURE", "type": "text", "info": {"label": "\u05d7\u05e9\u05d9\u05e4\u05d4 \u05dc\u05de\u05e0\u05d9\u05d5\u05ea", "notes": "\u05d7\u05e9\u05d9\u05e4\u05d4 \u05dc\u05de\u05e0\u05d9\u05d5\u05ea", "type_override": ""}}, {"id": "FOREIGN_EXPOSURE", "type": "text", "info": {"label": "\u05d7\u05e9\u05d9\u05e4\u05d4 \u05dc\u05d7\u05d5\"\u05dc", "notes": "\u05d7\u05e9\u05d9\u05e4\u05d4 \u05dc\u05d7\u05d5\"\u05dc", "type_override": ""}}, {"id": "FOREIGN_CURRENCY_EXPOSURE", "type": "text", "info": {"label": "\u05d7\u05e9\u05d9\u05e4\u05d4 \u05dc\u05de\u05d8\"\u05d7", "notes": "\u05d7\u05e9\u05d9\u05e4\u05d4 \u05dc\u05de\u05d8\"\u05d7", "type_override": ""}}, {"id": "MANAGING_CORPORATION_LEGAL_ID", "type": "numeric", "info": {"label": "\u05d7.\u05e4 \u05d7\u05d1\u05e8\u05d4", "notes": "\u05d7.\u05e4. \u05e9\u05dc \u05d4\u05d7\u05d1\u05e8\u05d4 \u05d4\u05de\u05e0\u05d4\u05dc\u05ea\r\n", "type_override": ""}}, {"id": "REPORTING_YEAR", "type": "numeric", "info": {"label": "\u05ea\u05d0\u05e8\u05d9\u05da \u05e0\u05d5\u05db\u05d7\u05d9", "notes": "\u05ea\u05d0\u05e8\u05d9\u05da \u05e0\u05d5\u05db\u05d7\u05d9", "type_override": ""}}, {"id": "rank", "type": "float"}], "_links": {"start": "/api/3/action/datastore_search?resource_id=91c849ed-ddc4-472b-bd09-0f5486cea35c&q=%D7%90%D7%99%D7%A0%D7%A4%D7%99%D7%A0%D7%99%D7%98%D7%99+%D7%94%D7%A9%D7%AA%D7%9C%D7%9E%D7%95%D7%AA+%D7%9E%D7%A0%D7%99%D7%95%D7%AA+%D7%91%D7%99%D7%A9%D7%A8%D7%90%D7%9C&limit=5", "next": "/api/3/action/datastore_search?resource_id=91c849ed-ddc4-472b-bd09-0f5486cea35c&q=%D7%90%D7%99%D7%A0%D7%A4%D7%99%D7%A0%D7%99%D7%98%D7%99+%D7%94%D7%A9%D7%AA%D7%9C%D7%9E%D7%95%D7%AA+%D7%9E%D7%A0%D7%99%D7%95%D7%AA+%D7%91%D7%99%D7%A9%D7%A8%D7%90%D7%9C&limit=5&offset=5"}, "total": 1145, "total_was_estimated": false}}